﻿ <-1> 19/05/2022 15:34:01.745     [Info   ] - Starts Loading Component : D:\MSE\xpa48\Add_On\UserFunctionality\UserFunctionality.ecf 
 <-1> 19/05/2022 15:34:01.792     [Info   ] - Starts Loading Component : System.Windows.Forms 
 <-1> 19/05/2022 15:34:01.875     [Info   ] - Ends Loading Component : System.Windows.Forms 
 <-1> 19/05/2022 15:34:01.875     [Info   ] - Starts Loading Component : System.Drawing 
 <-1> 19/05/2022 15:34:01.892     [Info   ] - Ends Loading Component : System.Drawing 
 <-1> 19/05/2022 15:34:01.892     [Info   ] - Starts Loading Component : System 
 <-1> 19/05/2022 15:34:01.955     [Info   ] - Ends Loading Component : System 
 <-1> 19/05/2022 15:34:01.956     [Info   ] - Starts Loading Component : System.Data 
 <-1> 19/05/2022 15:34:02.085     [Info   ] - Ends Loading Component : System.Data 
 <-1> 19/05/2022 15:34:02.086     [Info   ] - Starts Loading Component : Microsoft.Office.Interop.Excel 
 <-1> 19/05/2022 15:34:02.287     [Info   ] - Ends Loading Component : Microsoft.Office.Interop.Excel 
 <-1> 19/05/2022 15:34:02.288     [Info   ] - Starts Loading Component : Microsoft.CSharp 
 <-1> 19/05/2022 15:34:02.357     [Info   ] - Ends Loading Component : Microsoft.CSharp 
 <-1> 19/05/2022 15:34:02.358     [Info   ] - Starts Loading Component : System.Core 
 <-1> 19/05/2022 15:34:02.398     [Info   ] - Ends Loading Component : System.Core 
 <-1> 19/05/2022 15:34:02.499     [Info   ] - Ends Loading Component : D:\MSE\xpa48\Add_On\UserFunctionality\UserFunctionality.ecf 
 <-1> 19/05/2022 15:34:02.527     [Info   ] -   The project was successfully opened.
 <-1> 19/05/2022 15:38:35.726     [Info   ] - Starts Loading Component : D:\MSE\xpa48\Add_On\UserFunctionality\UserFunctionality.ecf 
 <-1> 19/05/2022 15:38:35.781     [Info   ] - Starts Loading Component : System.Windows.Forms 
 <-1> 19/05/2022 15:38:35.875     [Info   ] - Ends Loading Component : System.Windows.Forms 
 <-1> 19/05/2022 15:38:35.876     [Info   ] - Starts Loading Component : System.Drawing 
 <-1> 19/05/2022 15:38:35.893     [Info   ] - Ends Loading Component : System.Drawing 
 <-1> 19/05/2022 15:38:35.894     [Info   ] - Starts Loading Component : System 
 <-1> 19/05/2022 15:38:35.950     [Info   ] - Ends Loading Component : System 
 <-1> 19/05/2022 15:38:35.951     [Info   ] - Starts Loading Component : System.Data 
 <-1> 19/05/2022 15:38:36.081     [Info   ] - Ends Loading Component : System.Data 
 <-1> 19/05/2022 15:38:36.082     [Info   ] - Starts Loading Component : Microsoft.Office.Interop.Excel 
 <-1> 19/05/2022 15:38:36.338     [Info   ] - Ends Loading Component : Microsoft.Office.Interop.Excel 
 <-1> 19/05/2022 15:38:36.338     [Info   ] - Starts Loading Component : Microsoft.CSharp 
 <-1> 19/05/2022 15:38:36.396     [Info   ] - Ends Loading Component : Microsoft.CSharp 
 <-1> 19/05/2022 15:38:36.397     [Info   ] - Starts Loading Component : System.Core 
 <-1> 19/05/2022 15:38:36.434     [Info   ] - Ends Loading Component : System.Core 
 <-1> 19/05/2022 15:38:36.525     [Info   ] - Ends Loading Component : D:\MSE\xpa48\Add_On\UserFunctionality\UserFunctionality.ecf 
 <-1> 19/05/2022 15:38:36.544     [Info   ] -   The project was successfully opened.
